id,name
1,Licensed Map Data (core map and additional content)
2,OEM Distribution Products
3,Open Location Platform Product (OLP)
3,Navigation Data Standard Product (NDS)
4,Places Data Store (PDS)